E:\Code Workspace\AutomationClass\src\test\java\modules\ParallelClass1Test.java
E:\Code Workspace\AutomationClass\src\test\java\day3\LaunchRC.java
E:\Code Workspace\AutomationClass\src\test\java\modules\BMITest.java
E:\Code Workspace\AutomationClass\src\test\java\modules\BMITest_PropertiesFile.java
E:\Code Workspace\AutomationClass\src\test\java\supports\ExcelReport.java
E:\Code Workspace\AutomationClass\src\test\java\day3\abcTest.java
E:\Code Workspace\AutomationClass\src\test\java\libraries\BMIFunctions.java
E:\Code Workspace\AutomationClass\src\test\java\modules\GroupTest.java
E:\Code Workspace\AutomationClass\src\test\java\day3\Main.java
E:\Code Workspace\AutomationClass\src\test\java\libraries\BMILoadExcelData.java
E:\Code Workspace\AutomationClass\src\test\java\modules\ParallelClass2Test.java
E:\Code Workspace\AutomationClass\src\test\java\modules\EnableTest.java
E:\Code Workspace\AutomationClass\src\test\java\libraries\BMILoadPropertiesFile.java
E:\Code Workspace\AutomationClass\src\test\java\supports\CommonFunctions.java
E:\Code Workspace\AutomationClass\src\test\java\modules\ParallelTest.java
E:\Code Workspace\AutomationClass\src\test\java\modules\MultiGroupTest.java
E:\Code Workspace\AutomationClass\src\test\java\modules\ScreenshotTest.java
E:\Code Workspace\AutomationClass\src\test\java\objects\BMIPage.java
E:\Code Workspace\AutomationClass\src\test\java\modules\PriorityTest.java
E:\Code Workspace\AutomationClass\src\test\java\modules\DependencyTest.java
E:\Code Workspace\AutomationClass\src\test\java\configuration\TestBase.java
E:\Code Workspace\AutomationClass\src\test\java\modules\BMITest_Excel.java
